%YAML 1.1
%TAG !u! tag:unity3d.com,2011:
--- !u!114 &11400000
MonoBehaviour:
  m_ObjectHideFlags: 0
  m_PrefabParentObject: {fileID: 0}
  m_PrefabInternal: {fileID: 0}
  m_GameObject: {fileID: 0}
  m_Enabled: 1
  m_EditorHideFlags: 0
  m_Script: {fileID: 11500000, guid: 34404cb99b59bb543805a55e3c469d61, type: 3}
  m_Name: Effect
  m_EditorClassIdentifier: 
  editorConfirmations: 1
  animations:
  - speedRatio: 1
    loop: 1
    frameToLoop: 0
    frameDatas:
    - sprite: {fileID: 21300016, guid: d4c4e007f693e4bcab1f1c5131099847, type: 3}
      time: 0.1
      eventEnabled: 0
      eventName: 
    - sprite: {fileID: 21300018, guid: d4c4e007f693e4bcab1f1c5131099847, type: 3}
      time: 0.1
      eventEnabled: 0
      eventName: 
    - sprite: {fileID: 21300020, guid: d4c4e007f693e4bcab1f1c5131099847, type: 3}
      time: 0.1
      eventEnabled: 0
      eventName: 
    - sprite: {fileID: 21300022, guid: d4c4e007f693e4bcab1f1c5131099847, type: 3}
      time: 0.1
      eventEnabled: 0
      eventName: 
    - sprite: {fileID: 21300024, guid: d4c4e007f693e4bcab1f1c5131099847, type: 3}
      time: 0.1
      eventEnabled: 0
      eventName: 
    - sprite: {fileID: 21300026, guid: d4c4e007f693e4bcab1f1c5131099847, type: 3}
      time: 0.1
      eventEnabled: 0
      eventName: 
    - sprite: {fileID: 21300028, guid: d4c4e007f693e4bcab1f1c5131099847, type: 3}
      time: 0.1
      eventEnabled: 0
      eventName: 
    - sprite: {fileID: 21300030, guid: d4c4e007f693e4bcab1f1c5131099847, type: 3}
      time: 0.1
      eventEnabled: 0
      eventName: 
    - sprite: {fileID: 21300032, guid: d4c4e007f693e4bcab1f1c5131099847, type: 3}
      time: 0.1
      eventEnabled: 0
      eventName: 
    name: Explosion
    selectedIndex: 8
    newFramesTime: 0.1
  - speedRatio: 1
    loop: 0
    frameToLoop: 0
    frameDatas:
    - sprite: {fileID: 21300070, guid: 0fbd4aa9a75774d7fbe1352a04d34cd0, type: 3}
      time: 0.1
      eventEnabled: 0
      eventName: 
    - sprite: {fileID: 21300072, guid: 0fbd4aa9a75774d7fbe1352a04d34cd0, type: 3}
      time: 0.1
      eventEnabled: 0
      eventName: 
    - sprite: {fileID: 21300074, guid: 0fbd4aa9a75774d7fbe1352a04d34cd0, type: 3}
      time: 0.1
      eventEnabled: 0
      eventName: 
    - sprite: {fileID: 21300076, guid: 0fbd4aa9a75774d7fbe1352a04d34cd0, type: 3}
      time: 0.1
      eventEnabled: 0
      eventName: 
    - sprite: {fileID: 21300078, guid: 0fbd4aa9a75774d7fbe1352a04d34cd0, type: 3}
      time: 0.1
      eventEnabled: 0
      eventName: 
    name: Explosion_Small
    selectedIndex: 4
    newFramesTime: 0.1
