%YAML 1.1
%TAG !u! tag:unity3d.com,2011:
--- !u!114 &11400000
MonoBehaviour:
  m_ObjectHideFlags: 0
  m_PrefabParentObject: {fileID: 0}
  m_PrefabInternal: {fileID: 0}
  m_GameObject: {fileID: 0}
  m_Enabled: 1
  m_EditorHideFlags: 0
  m_Script: {fileID: 11500000, guid: 34404cb99b59bb543805a55e3c469d61, type: 3}
  m_Name: TikiCannon
  m_EditorClassIdentifier: 
  editorConfirmations: 1
  animations:
  - speedRatio: 1
    loop: 0
    frameToLoop: 0
    frameDatas:
    - sprite: {fileID: 21300000, guid: 1281674d24ee0134e9f62bec1f46f095, type: 3}
      time: 0.1
      eventEnabled: 0
      eventName: 
    name: Idle
    selectedIndex: 0
    newFramesTime: 0.1
  - speedRatio: 1
    loop: 0
    frameToLoop: 0
    frameDatas:
    - sprite: {fileID: 21300002, guid: 1281674d24ee0134e9f62bec1f46f095, type: 3}
      time: 0.1
      eventEnabled: 0
      eventName: 
    name: Attack
    selectedIndex: 0
    newFramesTime: 0.1
