%YAML 1.1
%TAG !u! tag:unity3d.com,2011:
--- !u!114 &11400000
MonoBehaviour:
  m_ObjectHideFlags: 0
  m_PrefabParentObject: {fileID: 0}
  m_PrefabInternal: {fileID: 0}
  m_GameObject: {fileID: 0}
  m_Enabled: 1
  m_EditorHideFlags: 0
  m_Script: {fileID: 11500000, guid: 34404cb99b59bb543805a55e3c469d61, type: 3}
  m_Name: Mettaur
  m_EditorClassIdentifier: 
  editorConfirmations: 1
  animations:
  - speedRatio: 1
    loop: 0
    frameToLoop: 0
    frameDatas:
    - sprite: {fileID: 21300000, guid: 04a7aea0615354541937b33e07d48f1f, type: 3}
      time: 0.1
      eventEnabled: 0
      eventName: 
    - sprite: {fileID: 21300002, guid: 04a7aea0615354541937b33e07d48f1f, type: 3}
      time: 0.1
      eventEnabled: 0
      eventName: 
    - sprite: {fileID: 21300004, guid: 04a7aea0615354541937b33e07d48f1f, type: 3}
      time: 0.1
      eventEnabled: 0
      eventName: 
    - sprite: {fileID: 21300006, guid: 04a7aea0615354541937b33e07d48f1f, type: 3}
      time: 0.1
      eventEnabled: 0
      eventName: 
    - sprite: {fileID: 21300008, guid: 04a7aea0615354541937b33e07d48f1f, type: 3}
      time: 0.1
      eventEnabled: 0
      eventName: 
    - sprite: {fileID: 21300010, guid: 04a7aea0615354541937b33e07d48f1f, type: 3}
      time: 0.1
      eventEnabled: 0
      eventName: 
    - sprite: {fileID: 21300012, guid: 04a7aea0615354541937b33e07d48f1f, type: 3}
      time: 0.1
      eventEnabled: 0
      eventName: 
    - sprite: {fileID: 21300014, guid: 04a7aea0615354541937b33e07d48f1f, type: 3}
      time: 0.1
      eventEnabled: 0
      eventName: 
    - sprite: {fileID: 21300016, guid: 04a7aea0615354541937b33e07d48f1f, type: 3}
      time: 0.1
      eventEnabled: 0
      eventName: 
    - sprite: {fileID: 21300018, guid: 04a7aea0615354541937b33e07d48f1f, type: 3}
      time: 0.1
      eventEnabled: 0
      eventName: 
    - sprite: {fileID: 21300020, guid: 04a7aea0615354541937b33e07d48f1f, type: 3}
      time: 0.1
      eventEnabled: 0
      eventName: 
    - sprite: {fileID: 21300022, guid: 04a7aea0615354541937b33e07d48f1f, type: 3}
      time: 0.1
      eventEnabled: 0
      eventName: 
    - sprite: {fileID: 21300024, guid: 04a7aea0615354541937b33e07d48f1f, type: 3}
      time: 0.1
      eventEnabled: 0
      eventName: 
    - sprite: {fileID: 21300026, guid: 04a7aea0615354541937b33e07d48f1f, type: 3}
      time: 0.1
      eventEnabled: 0
      eventName: 
    - sprite: {fileID: 21300028, guid: 04a7aea0615354541937b33e07d48f1f, type: 3}
      time: 0.1
      eventEnabled: 0
      eventName: 
    name: Mettaur_Attack
    selectedIndex: 8
    newFramesTime: 0.1
  - speedRatio: 1
    loop: 1
    frameToLoop: 0
    frameDatas:
    - sprite: {fileID: 21300000, guid: 04a7aea0615354541937b33e07d48f1f, type: 3}
      time: 0.1
      eventEnabled: 0
      eventName: 
    name: Mettaur_Idle
    selectedIndex: 0
    newFramesTime: 0.1
